…
A materialised generator dataset is an ordinary tibble in the
collection, indistinguishable downstream from a data-frame dataset.

## See also

[`ssd_gen()`](https://poissonconsulting.github.io/ssdsims/reference/ssd_gen.md),
[`ssd_define_scenario()`](https://poissonconsulting.github.io/ssdsims/reference/ssd_define_scenario.md).

## Examples

``` r
ssd_scenario_data(ssddata::ccme_boron)
#> $ccme_boron
#> # A tibble: 28 × 6
#>    Chemical Species                  Conc Group        Units Medium    
#>    <chr>    <chr>                   <dbl> <fct>        <chr> <chr>     
#>  1 Boron    Oncorhynchus mykiss       2.1 Fish         mg/L  Freshwater
#>  2 Boron    Ictalurus punctatus       2.4 Fish         mg/L  Freshwater
#>  3 Boron    Micropterus salmoides     4.1 Fish         mg/L  Freshwater
#>  4 Boron    Brachydanio rerio        10   Fish         mg/L  Freshwater
#>  5 Boron    Carassius auratus        15.6 Fish         mg/L  Freshwater
#>  6 Boron    Pimephales promelas      18.3 Fish         mg/L  Freshwater
#>  7 Boron    Daphnia magna             6   Invertebrate mg/L  Freshwater
#>  8 Boron    Opercularia bimarginata  10   Invertebrate mg/L  Freshwater
#>  9 Boron    Ceriodaphnia dubia       13.4 Invertebrate mg/L  Freshwater
#> 10 Boron    Entosiphon sulcatum      15   Invertebrate mg/L  Freshwater
#> # ℹ 18 more rows
#> 
#> attr(,"class")
#> [1] "ssdsims_data"
ssd_scenario_data(boron = ssddata::ccme_boron, cadmium = ssddata::ccme_cadmium)
#> $boron
#> # A tibble: 28 × 6
#>    Chemical Species                  Conc Group        Units Medium    
#>    <chr>    <chr>                   <dbl> <fct>        <chr> <chr>     
#>  1 Boron    Oncorhynchus mykiss       2.1 Fish         mg/L  Freshwater
#>  2 Boron    Ictalurus punctatus       2.4 Fish         mg/L  Freshwater
#>  3 Boron    Micropterus salmoides     4.1 Fish         mg/L  Freshwater
#>  4 Boron    Brachydanio rerio        10   Fish         mg/L  Freshwater
#>  5 Boron    Carassius auratus        15.6 Fish         mg/L  Freshwater
#>  6 Boron    Pimephales promelas      18.3 Fish         mg/L  Freshwater
#>  7 Boron    Daphnia magna             6   Invertebrate mg/L  Freshwater
#>  8 Boron    Opercularia bimarginata  10   Invertebrate mg/L  Freshwater
#>  9 Boron    Ceriodaphnia dubia       13.4 Invertebrate mg/L  Freshwater
#> 10 Boron    Entosiphon sulcatum      15   Invertebrate mg/L  Freshwater
#> # ℹ 18 more rows
#> 
#> $cadmium
#> # A tibble: 36 × 6
#>    Chemical Species                   Conc Group Units Medium    
#>    <chr>    <chr>                    <dbl> <fct> <chr> <chr>     
#>  1 Cadmium  Oncorhynchus mykiss       0.23 Fish  ug/L  Freshwater
#>  2 Cadmium  Salvelinus confluentus    0.83 Fish  ug/L  Freshwater
#>  3 Cadmium  Cottus bairdi             0.96 Fish  ug/L  Freshwater
#>  4 Cadmium  Salmo salar               0.99 Fish  ug/L  Freshwater
#>  5 Cadmium  Acipenser transmontanus   1.14 Fish  ug/L  Freshwater
#>  6 Cadmium  Prosopium williamsoni     1.25 Fish  ug/L  Freshwater
#>  7 Cadmium  Salmo trutta              1.36 Fish  ug/L  Freshwater
#>  8 Cadmium  Salvelinus fontinalis     2.23 Fish  ug/L  Freshwater
#>  9 Cadmium  Oncorhynchus tshawytscha  2.29 Fish  ug/L  Freshwater
#> 10 Cadmium  Pimephales promelas       2.36 Fish  ug/L  Freshwater
#> # ℹ 26 more rows
…
