Materialise Generator Datasets for a Simulation Scenario — ssd_gen • ssdsims
…
    See also

    ssd_scenario_data(), ssd_define_scenario(),
local_dqrng_backend(), task_primer().

    Examples

ssd_gen(synth = ssdtools::ssd_rlnorm, .n = 30, .seed = 42)
#> $synth
#> # A tibble: 30 × 1
#>     Conc
#>    <dbl>
#>  1 0.532
#>  2 0.782
#>  3 0.718
#>  4 0.137
#>  5 3.18 
#>  6 1.70 
#>  7 1.98 
#>  8 0.627
#>  9 0.788
#> 10 2.40 
#> # ℹ 20 more rows
#> 
#> attr(,"class")
#> [1] "ssdsims_gen"

# one .seed fans out across generators on independent name-keyed streams
ssd_gen(a = ssdtools::ssd_rlnorm, b = ssdtools::ssd_rlnorm, .n = 30, .seed = 42)
#> $a
#> # A tibble: 30 × 1
#>     Conc
#>    <dbl>
#>  1 2.41 
#>  2 0.914
#>  3 1.48 
#>  4 1.28 
#>  5 1.33 
#>  6 2.08 
#>  7 1.51 
#>  8 1.51 
#>  9 4.19 
#> 10 0.308
#> # ℹ 20 more rows
#> 
#> $b
#> # A tibble: 30 × 1
#>     Conc
#>    <dbl>
#>  1 5.05 
#>  2 2.96 
#>  3 0.266
#>  4 2.32 
#>  5 2.29 
#>  6 2.29 
#>  7 4.16 
#>  8 2.74 
#>  9 0.242
#> 10 1.33 
#> # ℹ 20 more rows
#> 
#> attr(,"class")
#> [1] "ssdsims_gen"

# composes with data frames in ssd_scenario_data()
ssd_scenario_data(
  boron = ssddata::ccme_boron,
  ssd_gen(synth = ssdtools::ssd_rlnorm, .n = 30, .seed = 42)
)
#> $boron
#> # A tibble: 28 × 5
#>    Chemical Species                  Conc Group        Units
#>    <chr>    <chr>                   <dbl> <fct>        <chr>
#>  1 Boron    Oncorhynchus mykiss       2.1 Fish         mg/L 
#>  2 Boron    Ictalurus punctatus       2.4 Fish         mg/L 
#>  3 Boron    Micropterus salmoides     4.1 Fish         mg/L 
#>  4 Boron    Brachydanio rerio        10   Fish         mg/L 
#>  5 Boron    Carassius auratus        15.6 Fish         mg/L 
#>  6 Boron    Pimephales promelas      18.3 Fish         mg/L 
#>  7 Boron    Daphnia magna             6   Invertebrate mg/L 
#>  8 Boron    Opercularia bimarginata  10   Invertebrate mg/L 
#>  9 Boron    Ceriodaphnia dubia       13.4 Invertebrate mg/L 
#> 10 Boron    Entosiphon sulcatum      15   Invertebrate mg/L 
#> # ℹ 18 more rows
#> 
#> $synth
#> # A tibble: 30 × 1
#>     Conc
#>    <dbl>
#>  1 0.532
#>  2 0.782
#>  3 0.718
#>  4 0.137
#>  5 3.18 
#>  6 1.70 
#>  7 1.98 
#>  8 0.627
#>  9 0.788
#> 10 2.40 
#> # ℹ 20 more rows
…
