Defining a Scenario • ssdsims
…
Run the baseline in-process loop with ssd_run_scenario_baseline().

Stages 1–3 are side-effect-free. Only stage 4 touches the RNG.

Stage 1: assemble the data

ssd_data() is the single entry point for dataset input. It validates each data frame — every dataset must carry a numeric Conc column, the species sensitivity distribution convention — and assembles them into a named collection.

datasets <- ssd_data(
  boron = ssddata::ccme_boron,
  cadmium = ssddata::ccme_cadmium
)
datasets
#> $boron
#> # A tibble: 28 × 5
#>    Chemical Species                  Conc Group        Units
#>    <chr>    <chr>                   <dbl> <fct>        <chr>
#>  1 Boron    Oncorhynchus mykiss       2.1 Fish         mg/L 
#>  2 Boron    Ictalurus punctatus       2.4 Fish         mg/L 
#>  3 Boron    Micropterus salmoides     4.1 Fish         mg/L 
#>  4 Boron    Brachydanio rerio        10   Fish         mg/L 
#>  5 Boron    Carassius auratus        15.6 Fish         mg/L 
#>  6 Boron    Pimephales promelas      18.3 Fish         mg/L 
#>  7 Boron    Daphnia magna             6   Invertebrate mg/L 
#>  8 Boron    Opercularia bimarginata  10   Invertebrate mg/L 
#>  9 Boron    Ceriodaphnia dubia       13.4 Invertebrate mg/L 
#> 10 Boron    Entosiphon sulcatum      15   Invertebrate mg/L 
#> # ℹ 18 more rows
#> 
#> $cadmium
#> # A tibble: 36 × 5
#>    Chemical Species                   Conc Group Units
#>    <chr>    <chr>                    <dbl> <fct> <chr>
#>  1 Cadmium  Oncorhynchus mykiss       0.23 Fish  ug/L 
#>  2 Cadmium  Salvelinus confluentus    0.83 Fish  ug/L 
#>  3 Cadmium  Cottus bairdi             0.96 Fish  ug/L 
#>  4 Cadmium  Salmo salar               0.99 Fish  ug/L 
#>  5 Cadmium  Acipenser transmontanus   1.14 Fish  ug/L 
#>  6 Cadmium  Prosopium williamsoni     1.25 Fish  ug/L 
#>  7 Cadmium  Salmo trutta              1.36 Fish  ug/L 
#>  8 Cadmium  Salvelinus fontinalis     2.23 Fish  ug/L 
#>  9 Cadmium  Oncorhynchus tshawytscha  2.29 Fish  ug/L 
#> 10 Cadmium  Pimephales promelas       2.36 Fish  ug/L 
#> # ℹ 26 more rows
…
The ci = FALSE collapse is visible in the hc table: the ci = FALSE rows carry NA for the bootstrap-only knobs and are not multiplied across them, while the ci = TRUE rows fan out fully.

tasks$hc
#> <ssdsims_tasks: hc>
#>   axes:  dataset, sim, replace, nrow, rescale, computable, at_boundary_ok, min_pmix, range_shape1, range_shape2, ci, nboot, est_method, ci_method, parametric
#>   tasks: 54
#> # A tibble: 54 × 17
#>    dataset   sim replace  nrow rescale computable at_boundary_ok min_pmix    
#>    <chr>   <int> <lgl>   <int> <lgl>   <lgl>      <lgl>          <chr>       
#>  1 boron       1 FALSE       5 FALSE   FALSE      TRUE           ssd_min_pmix
#>  2 boron       1 FALSE       5 FALSE   FALSE      TRUE           ssd_min_pmix
#>  3 boron       1 FALSE       5 FALSE   FALSE      TRUE           ssd_min_pmix
#>  4 boron       1 FALSE      10 FALSE   FALSE      TRUE           ssd_min_pmix
#>  5 boron       1 FALSE      10 FALSE   FALSE      TRUE           ssd_min_pmix
#>  6 boron       1 FALSE      10 FALSE   FALSE      TRUE           ssd_min_pmix
#>  7 boron       1 FALSE      20 FALSE   FALSE      TRUE           ssd_min_pmix
#>  8 boron       1 FALSE      20 FALSE   FALSE      TRUE           ssd_min_pmix
#>  9 boron       1 FALSE      20 FALSE   FALSE      TRUE           ssd_min_pmix
#> 10 boron       2 FALSE       5 FALSE   FALSE      TRUE           ssd_min_pmix
#> # ℹ 44 more rows
#> # ℹ 9 more variables: range_shape1 <list>, range_shape2 <list>, ci <lgl>,
#> #   nboot <int>, est_method <chr>, ci_method <chr>, parametric <lgl>,
#> #   hc_id <chr>, fit_id <chr>
…
ssd_run_scenario_baseline() is the no-frills runner. It executes the three task tables in dependency order, threading each task’s result forward to its children by the foreign-key id. It runs in-process, with no targets, no shard grouping, and no Parquet I/O.

It is reproducible without an external seed: the runner opens one local_dqrng_backend() scope and seeds each task exactly once from scenario$seed plus a per-task primer (task_primer() over the task’s identity), so two runs of a scenario with a fixed seed yield identical results, regardless of the order in which tasks run:

out <- ssd_run_scenario_baseline(scenario)
names(out)
#> [1] "sample" "fit"    "hc"

Each element is the corresponding task table augmented with a list column of per-task results — sample draws, fits objects, and hc tibbles (the fit step truncates its sample inline before fitting):

out$hc
#> <ssdsims_tasks: hc>
#>   axes:  dataset, sim, replace, nrow, rescale, computable, at_boundary_ok, min_pmix, range_shape1, range_shape2, ci, nboot, est_method, ci_method, parametric
#>   tasks: 54
#> # A tibble: 54 × 18
#>    dataset   sim replace  nrow rescale computable at_boundary_ok min_pmix    
#>    <chr>   <int> <lgl>   <int> <lgl>   <lgl>      <lgl>          <chr>       
#>  1 boron       1 FALSE       5 FALSE   FALSE      TRUE           ssd_min_pmix
#>  2 boron       1 FALSE       5 FALSE   FALSE      TRUE           ssd_min_pmix
#>  3 boron       1 FALSE       5 FALSE   FALSE      TRUE           ssd_min_pmix
#>  4 boron       1 FALSE      10 FALSE   FALSE      TRUE           ssd_min_pmix
#>  5 boron       1 FALSE      10 FALSE   FALSE      TRUE           ssd_min_pmix
#>  6 boron       1 FALSE      10 FALSE   FALSE      TRUE           ssd_min_pmix
#>  7 boron       1 FALSE      20 FALSE   FALSE      TRUE           ssd_min_pmix
#>  8 boron       1 FALSE      20 FALSE   FALSE      TRUE           ssd_min_pmix
#>  9 boron       1 FALSE      20 FALSE   FALSE      TRUE           ssd_min_pmix
#> 10 boron       2 FALSE       5 FALSE   FALSE      TRUE           ssd_min_pmix
#> # ℹ 44 more rows
#> # ℹ 10 more variables: range_shape1 <list>, range_shape2 <list>, ci <lgl>,
#> #   nboot <int>, est_method <chr>, ci_method <chr>, parametric <lgl>,
#> #   hc_id <chr>, fit_id <chr>, hc <list>

Unnest the hazard-concentration estimates back onto their task identities to get a tidy results table. proportion is not a task axis — it is passed whole to each hc call, so every result already carries its own proportion column:

hcs <- tidyr::unnest(
  out$hc[c("dataset", "sim", "nrow", "ci", "est_method", "hc")],
  hc,
  names_sep = "_"
)
hcs[c("dataset", "sim", "nrow", "ci", "hc_proportion", "hc_est")]
#> # A tibble: 108 × 6
#>    dataset   sim  nrow ci    hc_proportion hc_est
#>    <chr>   <int> <int> <lgl>         <dbl>  <dbl>
#>  1 boron       1     5 FALSE          0.05   2.65
#>  2 boron       1     5 FALSE          0.2    6.54
#>  3 boron       1     5 TRUE           0.05   2.65
#>  4 boron       1     5 TRUE           0.2    6.54
#>  5 boron       1     5 TRUE           0.05   2.65
#>  6 boron       1     5 TRUE           0.2    6.54
#>  7 boron       1    10 FALSE          0.05   1.63
#>  8 boron       1    10 FALSE          0.2    4.91
#>  9 boron       1    10 TRUE           0.05   1.63
#> 10 boron       1    10 TRUE           0.2    4.91
#> # ℹ 98 more rows
…
